{
  "production": {
    "log_level": "WARNING",
    "context_header_mappings": {
      "X-Amazon-Request-ID": "requestId"
    },
    "app_function": "gwio.api.flask_app.app",
    "exception_handler": "gwio.core.utils.aws.report_exception",
    "certificate_arn": "arn:aws:acm:us-east-1:430384725534:certificate/02f8e6b3-3966-464b-9e6b-7db38024d569",
    "description": "VPK Gateway order processing API",
    "project_name": "vpk-v2018-10",
    "domain": "v2018-10.api.vpkgateway.fi",
    "cors": {
      "allowed_headers": [
        "DNT",
        "X-Mx-ReqToken",
        "Keep-Alive",
        "User-Agent",
        "X-Requested-With",
        "If-Modified-Since",
        "Cache-Control",
        "Content-Type",
        "Authorization",
        "X-Epharma-Channel",
        "X-Amazon-Request-ID"
      ],
      "allowed_methods": [
        "DELETE",
        "GET",
        "HEAD",
        "OPTIONS",
        "PATCH",
        "POST",
        "PUT"
      ],
      "allowed_origin": "*"
    },
    "binary_support": false,
    "manage_roles": false,
    "role_name": "ZappaLambdaExecution",
    "s3_bucket": "gwio-scratch",
    "use_precompiled_packages": false,
    "vpc_config": {
      "SubnetIds": [
        "subnet-b1a583e9"
      ],
      "SecurityGroupIds": [
        "sg-a0a772d9"
      ]
    }
  }
}
