{
  "version": "2.0",
  "app_name": "services",
  "subnet_ids": [
    "subnet-b1a583e9"
  ],
  "security_group_ids": [
    "sg-a0a772d9"
  ],
  "stages": {
    "master": {
      "api_gateway_policy_file": "./.chalice/aws-policys/dev.json"
    },
    "staging": {
      "api_gateway_policy_file": "./.chalice/aws-policys/staging.json"
    },
    "production": {
      "api_gateway_policy_file": "./.chalice/aws-policys/production.json"
    }
  }
}
