{
  "version": "2.0",
  "app_name": "logs-to-es",
  "subnet_ids": [
    "subnet-b1a583e9"
  ],
  "security_group_ids": [
    "sg-a0a772d9"
  ],
  "manage_iam_role": false,
  "iam_role_arn": "arn:aws:iam::430384725534:role/ZappaLambdaExecution",
  "environment_variables": {
    "NAMESPACE": "/TESTING/SERVICES"
  },
  "stages": {
    "master": {
      "environment_variables": {
        "NAMESPACE": "/dev/sma"
      }
    },
    "staging": {
      "environment_variables": {
        "NAMESPACE": "/staging/sma"
      }
    },
    "production": {
      "environment_variables": {
        "NAMESPACE": "/production/sma"
      }
    }
  }
}
