{
  "Version": "2012-10-17",
  "Statement": [
    {
      "Sid": "VisualEditor0",
      "Effect": "Allow",
      "Action": [
        "events:PutEvents",
        "ec2:DescribeInstances",
        "ec2:DetachNetworkInterface",
        "cognito-identity:*",
        "xray:PutTelemetryRecords",
        "lambda:InvokeFunction",
        "ec2:ResetNetworkInterfaceAttribute",
        "ec2:ModifyNetworkInterfaceAttribute",
        "ec2:DeleteNetworkInterface",
        "xray:PutTraceSegments",
        "ec2:CreateNetworkInterface",
        "ses:SendEmail",
        "ec2:DescribeNetworkInterfaces",
        "route53:*",
        "ec2:AttachNetworkInterface",
        "cognito-idp:*",
        "es:*"
      ],
      "Resource": "*"
    },
    {
      "Sid": "VisualEditor1",
      "Effect": "Allow",
      "Action": "logs:*",
      "Resource": "arn:aws:logs:*:*:*"
    },
    {
      "Sid": "VisualEditor2",
      "Effect": "Allow",
      "Action": "s3:*",
      "Resource": "arn:aws:s3:::*"
    },
    {
      "Sid": "VisualEditor3",
      "Effect": "Allow",
      "Action": "kinesis:*",
      "Resource": "arn:aws:kinesis:*:*:*"
    },
    {
      "Sid": "VisualEditor4",
      "Effect": "Allow",
      "Action": "sns:*",
      "Resource": "arn:aws:sns:*:*:*"
    },
    {
      "Sid": "VisualEditor5",
      "Effect": "Allow",
      "Action": "sqs:*",
      "Resource": "arn:aws:sqs:*:*:*"
    },
    {
      "Sid": "VisualEditor6",
      "Effect": "Allow",
      "Action": "dynamodb:*",
      "Resource": "arn:aws:dynamodb:*:*:*"
    },
    {
      "Sid": "VisualEditor7",
      "Effect": "Allow",
      "Action": [
        "kms:Decrypt",
        "ssm:GetParametersByPath",
        "ssm:GetParameters",
        "ssm:GetParameter"
      ],
      "Resource": [
        "arn:aws:ssm:*:*:parameter/*",
        "arn:aws:kms:eu-north-1:593943765506:key/b41427f7-6405-46b6-9290-3793c5ee1b40"
      ]
    }
  ]
}
